{
  "features": [
    "intent_forgot_username_password", 
    "intent_reset_pin_creditcard", 
    "intent_lost_stolen_creditcard", 
    "intent_expired_creditcard", 
    "intent_make_cash_advance", 
    "intent_creditcard_payment_options", 
    "entity_matches", 
    "slot_matches_0", 
    "prev_action_listen", 
    "prev_action_restart", 
    "prev_utter_greet", 
    "prev_utter_forgot_username_password", 
    "prev_utter_reset_pin_creditcard", 
    "prev_utter_lost_stolen_creditcard", 
    "prev_utter_expired_creditcard", 
    "prev_utter_make_cash_advance", 
    "prev_utter_creditcard_payment_options", 
    "prev_utter_fallback"
  ]
}