{
  "pipeline": ["nlp_spacy", "tokenizer_spacy","ner_spacy","ner_synonyms","ner_crf","intent_entity_featurizer_regex", "intent_featurizer_spacy", "intent_classifier_sklearn"],
  "path" : "projects",
  "fixed_model_name" : "model",
  "data" : "./data/training_data.json",
  "project" :"default"
}
