{
  "2048 mb": "2048 MB",
  "3072 mb": "3072 MB",
  "45 gb": "45 GB",
  "40 gb": "40 GB",
  "50 gb": "50 GB",
  "300 gb": "300 GB",
  "70 gb": "70 GB",
  "testdemo1234": "TestDemo1234",
  "firstsystem": "firstSystem",
  "kafka": "KAFKA",
  "6144 mb": "6144 MB",
  "5120 mb": "5120 MB",
  "9216 mb": "9216 MB",
  "qaonecloudtest1": "QaOneCloudTest1",
  "200 gb": "200 GB",
  "1024 mb": "1024 MB",
  "4096 mb": "4096 MB",
  "32 gb": "32 GB",
  "production": "Production",
  "7168 mb": "7168 MB",
  "16 gb": "16 GB",
  "iamtheone": "IamtheOne",
  "8192 mb": "8192 MB",
  "soa12capp": "SOA12CAPP",
  "development": "Development",
  "anotherone": "AnotherOne",
  "copyas global": "Copyas Global",
  "60 gb": "60 GB",
  "test template....": "test Template....",
  "envdev": "envDev",
  "11264 mb": "11264 MB",
  "khalid": "Khalid",
  "qa_mvp2_inst_graph_glob1": "QA_MVP2_INST_GRAPH_GLOB1",
  "256 gb": "256 GB",
  "100 gb": "100 GB",
  "reallygood": "ReallyGood",
  "8 gb": "8 GB",
  "400 gb": "400 GB",
  "10240 mb": "10240 MB",
  "veryuseful": "veryUseful",
  "mysqlaws": "MySqlAWS",
  "demosaveawstemplate": "demoSaveAWSTemplate",
  "notsouseful": "notSoUseful",
  "awtestaws": "AwTestAws"
}