[
    {
        "pattern": "[0-9a-f]{8}-[0-9a-f]{4}-[1-5][0-9a-f]{3}-[89ab][0-9a-f]{3}-[0-9a-f]{12}", 
        "name": "request_id"
    }, 
    {
        "pattern": "[(M|m)(b|B)]", 
        "name": "memory"
    }, 
    {
        "pattern": "[(day*s)|(week*s)|(month*s)|(year*s)]", 
        "name": "lease"
    }, 
    {
        "pattern": "[(G|g)(B|b)]", 
        "name": "storage"
    }
]