{
  "lookup": {
    "eJwtzFEKgCAQRdGtuAAJW88gD9EpBkRlmoJ2n1T/91wiGsoXTjNW7Mps3q1LiNE7ImnGzZDGqDe2rsjKRQw5afmyWb0+ZZPeUOWY4j/EB0T2IVg=": 3, 
    "eJydj20KhDAMBa/iAUTc8xQJpUYM1DakWaG39wPRgujC/p6BN88YQ0ExKFhmn2GIAk6wJwVnpa+rT9N2dWVWgzSXCDQznjz5qDcK7clZcAbrlGK4LV1Dm/l3D3+FY3pJOoSi6lf1zierbsT0cMZTWnOP/G4B17t3kg==": 3, 
    "eJyLjo7OzCtJzSuJTy9KTS3RUTDUM4jVUYguKEotiy8tKUktQpYAyeBRn5hckpmfF5+TWQxUAdURCwCctiG3": 2, 
    "eJzFjlEKgCAQBa/SASTsPCLLogYLpqJL4O3TiiIv0O+bgXlKKQrsAgOm5CusMYPJzhKDwWzFtMxSi0k1g7hCwM09W/GRb7m7JwT5xcOWstsBDVMM4Km08IU6++3IGHx7Wh/CkGPa": 0, 
    "eJxlzVEKgCAMgOGreAAJO4/IEF0wkDnWCrx9PlnQ8/fDH/lqzbsYiQ3ZIIu0AUdXKIqVDErW6t2+hTSrWZCNL4ENweVn6/ZTCMtF8YZcjDr/Tu8opQc2jTZH": 0, 
    "eJyVzlEKgCAQRdGtuAAJW4/EIGowYCo6BO4+DTEoCPw+D96VUqIn6wlUjK7AHhLoZA0SaJUMZ+siNs5kXSCVTk3Aq8MOzi7QG0EMjsmeoDRh8J+f56Ytp2pmEm7+yXKY63EP2S7myWIe": 3, 
    "eJyLjo4uKEotiy8tKUktik8vSk0t0VEw1DOIjdVRiI7OzCtJzStBFgaKgtUnJpdk5ufF52QWA1VAdcQCADDNGtA=": 2, 
    "eJyLjo7OzCtJzSuJTy9KTS3RUTDUM4jVUYguKEoti09MLsnMz4vPySwGqoBIgeQgkqUlJalFyLpiYwEoRRrQ": 0, 
    "eJyNjlEKgCAQBa/iASTsPIssohssiIougbfPICqwj75neG8AgJNQEnSlxI5brugrBRb0rgat1sVYraBU2tF54Zwm8xFP89/eMFj6G6H0QjdvMctE0Xz2RG7j8SqwB/BcS84=": 3, 
    "eJyLzivNydFRiI7OzCtJzSuJTy9KTS3RUTDUM4gFihYUpZbFl5aUpBYhS8TGAgAPxRK4": 0, 
    "eJxljEEKwCAMBL/SB0hp3yOyBLUQSKOEtODv681Dr8PMRH1EwhYjq1d1UO8ycDVDtlrYkclK2M79SNOaBvvATSzghbvVF5Sdm/4Gq0/pA5aUJ10=": 0, 
    "eJzVjlsKhDAMAK/iAWTR85QSSo1soLYhjUJvr7KwFh8H8HdmPsYYQ1ExKjjmUGBMAl5wIAXvZGib/tPZtjFbQVpqBTwLp4z/JIekdwF0z4kWvvjJqf9irjALLuC8UooQKG+7P7W7l+2fN49La1cfQozC": 0, 
    "eJxdzW0KgCAQRdGtuAAJW4/IIGowMI2iU+Dusw+C+vvugWd5I9LKWmRJLOBLoQ5LrhBqiigQfI1azZNxQw2B0oH9mt6tUZYHn/aKYL75t5WadvBBMDMQtnF8J+cOQtoxUg==": 3, 
    "eJyLzivNydFRiI7OzCtJzSuJTywoyKmMT8svik8uSk3JLIlPTixK0VEw1DOIBaoqKEoti09MLsnMz8NQiVAYGwsAfuEfsw==": 0, 
    "eJx1j9EJwzAMRFfJAKGk8xhzGEelAtUWshLw9nUpFBPor967OxTKIbIuIXBxKo6kKh2PashGOztysn1d7rctDmsY7B1u6SSBd6UfalJ9zkAP09oI23/lU3Dlr+T5Se16niYnpEYnUnauBcJtfPBFMb4B2YZL0g==": 3, 
    "eJyLjo7OzCtJzSuJTywoyKmMT8svik8uSk3JLIlPTixK0VEw1DOI1VGILihKLYtPTC7JzM+Lz8ksBuqASIHkSDcBXSVCYWwsAHifNTo=": 0, 
    "eJxlzWEKgCAMQOGrdAAJO4/IEDUYjDnmCrx9QiBBv78HL/BF5LYQkK2yQRKhAWdTyFoLGuSkxW3H7uOsZoE2vgQ2pC7v1Oyn4JeL1htSNmwMhH0eX4rxAVF9MJY=": 3, 
    "eJxljUEKgCAQAL/iAyTsPSKL6AaCrbJtgb/PIorqOjMwltactbI2kSAJ+Fpzg6kwBMaYBILnqNU4GNerXiRpQH7Gmy25yBUf7SnBvPWHVcYNfJBU6Dd8fs7tMjI3Aw==": 0, 
    "eJy9zlEKgCAQRdGtuAAJW88gg+gEA6KiQ+DuMwKL+u/7PLgPADgJJUFXSuy45Yq+UmBB72rQal2M1QrGgqU/CaUXmt5ilo+imV4q7ei8cE4YuY3iRaf9/+BdukPWHkAPYmI=": 0, 
    "eJxdzVEKgCAMgOGreAAJO4/IGGowWFN0Bd4+o+ih5++H38vBbI33JJpFAWvlAVtpEFtOpBCxJWvWxYVZzYJ0vHQLCO75485F/wju49ryCRiVigBTn7+HQrgA3yMvlg==": 3, 
    "eJyLjo7OzCtJzSuJTy9KTS3RUTDUM4jVUYguKEoti09MLsnMz4vPySwGqoBIgeTw6CgtKUktQpaIjQUAoI4htw==": 0, 
    "eJy9j1EKgzAQRK/iAaToeYIsS9zShZgsm1XI7WultAH1wx9/Zx7MPOccR6NogCKhwDMpeKWRDTzq2Db9oxvaxq0EW6krkFklZfohOSQ7AqA7R6zIrp/Q/ItyFYvSAuiNU9zd/L/8kJdkTHGhsH24QWKLq8kTv8B5NfgaDW8hlpLO": 3, 
    "eJyVj1sKgCAQRbfSAiRqPRLDoBMNmIoOgbvvgRTVl7/3nuGe0VqzF/ICGKMrMIcEJpFlAYPJqm7sh0l1+iBYCnhc6c6yC1Lhk71KGN71J4uJNkAjHPxv8Nk7ySatFdkB2yazevOPxSyUG/5wnA/Taj7t9Fxz2g==": 3, 
    "eJxlzMEJgDAMQNFVHKCIzlNKCG2EQEhDiIVub0968PwfP+stkracWYM0AM1kwtUdqlPjgIre0nbuR1lqCY4J4ThIIKbRm8xpANbgrr/J9yjlAVFxKT0=": 0, 
    "eJx1zkEKgDAMRNGreAARPU8podSIgdiGNAq9vQVBBHU7/y3GpZ2575yjZJgMgghXWLJCVJzJIAad+24aRt9UE2T1mUB2lVzwJoWzfQEY/4lVefUtWFyxPGZRPCBEo5yAqbS7V/L+BKzTRcY=": 3, 
    "eJyLzivNydFRiI7OzCtJzSuJTy9KTS3RUTDUM4gFihYUpZbFJyaXZObnxedkFgNVQKRiYwE3PhN6": 2, 
    "eJy9zeEJgCAQQOFVHEDC5hE5RA0O7BQ9ArdPKQwcoN/fg6e1RuJADDbn2OBIBVwJHhmcLV6KfVNGCt0L5PbSECB7hsk1Jl4R1ORcwgXWMSaCiLX/Hhr293/9fBtjbmszYGI=": 0, 
    "eJyLzivNydFRiI7OzCtJzSuJTywoyKmMT8svik8uSk3JLIlPTixK0VEw1DOIBaoqKEoti09MLsnMz4vPySwG6oBIxcYCANX4GgI=": 3, 
    "eJxljlEKgzAQRK/iAaTY84QwLHHFhXUTkm3B2xupUGp/37wZJthLdRxCEHM2B5WiO5ZckSrP4khU53F4PqbYrW6I79hIFPLFTbNf/qnDaGNMv/HV+ceeVm53fFsold+g5JINKq0//UQxHkxzQVI=": 3, 
    "eJxlzWEKgCAMQOGreAAJO4/IGGowsClrBd4+gyio39+D53kvxRrviTWzArZWOixVIEpOpBBRkjXz5MKoRkHab7oEGNf88FaqfhHcw03yARiVKv8+7yaEE7YzNUc=": 0, 
    "eJxtjVEKgCAQBa/iASTqPCLLolssmMq2BN4+g8KP+n3MzHPOcVbKClhrarAWgSAUWSGgRGuWafbWuE6wNtiRE/CYq9AJGJRL/gSGf5PvzSZE+usnPjrxGP4CvHo2XA==": 2, 
    "eJyljlEKgzAQRK/iAaToeUIYlrilCzEJySJ4exMqaNNPf9/MPMYYI0E5KCglv+MdM1zmRRSO8jIO82uy42BqQ3THSuIhFy4+6tlvdQRaGdNvfG7+sboPlx53hpR5AzmVGOCl1KffqGWPnt/FveDaW3sA1MZkNA==": 0, 
    "eJxVjG0KgCAMhq/iASTqPEOG6IqBqKy3oNtXUFC/nw8i0gqp4MVE4N00jME76iY7b4DYF9zk9WPv5eC5GSeTrOAULf/7mKCtctH1Kp5DOAEfXig/": 3, 
    "eJyVjkEKgDAMBL/iA0T0PUWWUCMEaltiEPp7FcSCevE8y8w65yQaRwPlHArmpPDKkxg86dQ2Q9ePbeOOhViBKW0cYCXzjbLyBvImKb4k1XEuf6WqAJGWmltDsidE//kmyHr0rv64A6iwVFg=": 3, 
    "eJyLzivNydFRiI4uKEotiy8tKUktik8vSk0t0VEw1DOIjY0FANJnC9E=": 0, 
    "eJx1zkEKgCAQheGreIAIO4/IIDbRgOkwToG3z1UF1fb93+K5vKc0GOcoK2aFwJwaLEUgCs6kEIPMg5lG67vqgrQ9E/AuXCpepKaiXwDsP9HGr74FjSvWx8yCB4SoVPLr5v3S+xO6kkt3": 0, 
    "eJyLzivNydFRAJGxAB0vBHs=": 0, 
    "eJylj0EKwzAMBL+SB4SSvMeYRTgqNbi2kJWAf9+EQmsMPfWq2R2xzrmYjbOBRFLDvSiC8hYNgXSbp/W2+HlyZyJagykdnGBN+INqKtZ3ILtKqYzld+QSjPxJFh5cx3P3skOifICCxZKRYj0XvNHF/l7Uy0fJ1+H9C0NEcJQ=": 0
  }
}