{
  "action_fingerprints": {
    "null": {
      "slots": [
        "matches"
      ]
    }, 
    "action_apply_for_creditcard": {
      "slots": []
    }, 
    "action_listen": {
      "slots": [
        "credit_card_purpose", 
        "name", 
        "matches", 
        "credit_card_type", 
        "mail_id", 
        "travel_type", 
        "creditcard_name"
      ]
    }, 
    "utter_greet": {
      "slots": []
    }
  }, 
  "ensemble_name": "rasa_core.policies.ensemble.SimplePolicyEnsemble", 
  "max_history": 2, 
  "policy_names": [
    "rasa_core.policies.memoization.MemoizationPolicy", 
    "VRAPolicy.VRAPolicy"
  ], 
  "rasa_core": "0.8.5"
}