:0: UserWarning: You do not have a working installation of the service_identity module: 'No module named service_identity'.  Please install it from <https://pypi.python.org/pypi/service_identity> and make sure all of its dependencies are satisfied.  Without the service_identity module, Twisted can perform only rudimentary TLS client hostname verification.  Many valid certificate/hostname mappings may be rejected.
Using TensorFlow backend.
2018-04-02 17:09:38.925043: W tensorflow/core/platform/cpu_feature_guard.cc:45] The TensorFlow library wasn't compiled to use SSE4.2 instructions, but these are available on your machine and could speed up CPU computations.
2018-04-02 17:09:38.925091: W tensorflow/core/platform/cpu_feature_guard.cc:45] The TensorFlow library wasn't compiled to use AVX instructions, but these are available on your machine and could speed up CPU computations.
2018-04-02 17:09:38.925109: W tensorflow/core/platform/cpu_feature_guard.cc:45] The TensorFlow library wasn't compiled to use AVX2 instructions, but these are available on your machine and could speed up CPU computations.
2018-04-02 17:09:38.925123: W tensorflow/core/platform/cpu_feature_guard.cc:45] The TensorFlow library wasn't compiled to use FMA instructions, but these are available on your machine and could speed up CPU computations.
DEBUG:pip.utils:lzma module is not available
DEBUG:pip.vcs:Registered VCS backend: git
DEBUG:pip.vcs:Registered VCS backend: hg
DEBUG:pip.vcs:Registered VCS backend: svn
DEBUG:pip.vcs:Registered VCS backend: bzr
INFO:rasa_nlu.components:Added 'nlp_spacy' to component cache. Key 'nlp_spacy-en'.
INFO:__main__:Started http server on port 5000
2018-04-02 17:09:49+0530 [-] Log opened.
2018-04-02 17:09:49+0530 [-] Site starting on 5000
2018-04-02 17:09:49+0530 [-] Starting factory <twisted.web.server.Site instance at 0x1a1ca31098>
DEBUG:rasa_core.tracker_store:Creating a new tracker for id 'ishwar1'.
DEBUG:rasa_core.processor:Received user message 'push build 4343 on test' with intent '{u'confidence': 0.99992849607457168, u'name': u'push'}' and entities '[{u'start': 11, u'extractor': u'ner_spacy', u'end': 15, u'value': u'4343', u'entity': u'CARDINAL'}, {u'start': 11, u'extractor': u'ner_crf', u'end': 15, u'value': u'4343', u'entity': 'buildID'}, {u'start': 19, u'extractor': u'ner_crf', u'end': 23, u'value': u'test', u'entity': 'envName'}]'
DEBUG:rasa_core.processor:Logged UserUtterance - tracker now has 4 events
DEBUG:rasa_core.processor:Current slot values: 
	buildID: 4343
	matches: None
	envName: test
DEBUG:rasa_core.featurizers:Feature 'entity_CARDINAL' (value: '1.0') could not be found in feature map. Make sure you added all intents and entities to the domain
DEBUG:rasa_core.policies.memoization:Current tracker state [
	None
	[(u'intent_push', 1.0), (u'entity_envName', 1.0), (u'entity_buildID', 1.0), (u'slot_buildID_0', 1.0), (u'slot_envName_0', 1.0), (u'prev_action_listen', 1.0)]]
DEBUG:rasa_core.policies.memoization:Used memorised next action '9'
DEBUG:rasa_core.featurizers:Feature 'entity_CARDINAL' (value: '1.0') could not be found in feature map. Make sure you added all intents and entities to the domain
DEBUG:rasa_core.policies.ensemble:Predicted next action 'action_push_confirm' with prob 1.00.
DEBUG:rasa_core.tracker_store:Recreating tracker for id 'ishwar1'
DEBUG:rasa_core.processor:Received user message 'push build 4343 on test' with intent '{u'confidence': 0.99992849607457168, u'name': u'push'}' and entities '[{u'start': 11, u'extractor': u'ner_spacy', u'end': 15, u'value': u'4343', u'entity': u'CARDINAL'}, {u'start': 11, u'extractor': u'ner_crf', u'end': 15, u'value': u'4343', u'entity': 'buildID'}, {u'start': 19, u'extractor': u'ner_crf', u'end': 23, u'value': u'test', u'entity': 'envName'}]'
DEBUG:rasa_core.processor:Logged UserUtterance - tracker now has 7 events
DEBUG:rasa_core.processor:Current slot values: 
	buildID: 4343
	matches: None
	envName: test
DEBUG:rasa_core.featurizers:Feature 'entity_CARDINAL' (value: '1.0') could not be found in feature map. Make sure you added all intents and entities to the domain
DEBUG:rasa_core.policies.memoization:Current tracker state [
	None
	[(u'intent_push', 1.0), (u'entity_envName', 1.0), (u'entity_buildID', 1.0), (u'slot_buildID_0', 1.0), (u'slot_envName_0', 1.0), (u'prev_action_listen', 1.0)]]
DEBUG:rasa_core.policies.memoization:Used memorised next action '9'
DEBUG:rasa_core.featurizers:Feature 'entity_CARDINAL' (value: '1.0') could not be found in feature map. Make sure you added all intents and entities to the domain
DEBUG:rasa_core.policies.ensemble:Predicted next action 'action_push_confirm' with prob 1.00.
DEBUG:rasa_core.processor:Bot utterance 'BotUttered(text: Your build 4343 push to test is in progress., data: null)'
DEBUG:rasa_core.processor:Action 'action_push_confirm' ended with events '[]'
DEBUG:rasa_core.featurizers:Feature 'entity_CARDINAL' (value: '1.0') could not be found in feature map. Make sure you added all intents and entities to the domain
DEBUG:rasa_core.featurizers:Feature 'entity_CARDINAL' (value: '1.0') could not be found in feature map. Make sure you added all intents and entities to the domain
DEBUG:rasa_core.policies.memoization:Current tracker state [
	[(u'intent_push', 1.0), (u'entity_envName', 1.0), (u'entity_buildID', 1.0), (u'slot_buildID_0', 1.0), (u'slot_envName_0', 1.0), (u'prev_action_listen', 1.0)]
	[(u'intent_push', 1.0), (u'entity_envName', 1.0), (u'entity_buildID', 1.0), (u'slot_buildID_0', 1.0), (u'slot_envName_0', 1.0), (u'prev_action_push_confirm', 1.0)]]
DEBUG:rasa_core.policies.memoization:Used memorised next action '0'
DEBUG:rasa_core.featurizers:Feature 'entity_CARDINAL' (value: '1.0') could not be found in feature map. Make sure you added all intents and entities to the domain
DEBUG:rasa_core.featurizers:Feature 'entity_CARDINAL' (value: '1.0') could not be found in feature map. Make sure you added all intents and entities to the domain
DEBUG:rasa_core.policies.ensemble:Predicted next action 'action_listen' with prob 1.00.
DEBUG:rasa_core.processor:Action 'action_listen' ended with events '[]'
DEBUG:rasa_core.processor:Current topic: None
2018-04-02 17:09:52+0530 [-] "127.0.0.1" - - [02/Apr/2018:11:39:51 +0000] "POST /conversations/ishwar1/parse HTTP/1.1" 200 1145 "-" "PostmanRuntime/7.1.1"
DEBUG:rasa_core.tracker_store:Recreating tracker for id 'ishwar1'
DEBUG:rasa_core.processor:Received user message 'give me latest build' with intent '{u'confidence': 0.99559556767241986, u'name': u'latest'}' and entities '[]'
DEBUG:rasa_core.processor:Logged UserUtterance - tracker now has 11 events
DEBUG:rasa_core.processor:Current slot values: 
	buildID: 4343
	matches: None
	envName: test
DEBUG:rasa_core.featurizers:Feature 'entity_CARDINAL' (value: '1.0') could not be found in feature map. Make sure you added all intents and entities to the domain
DEBUG:rasa_core.policies.memoization:Current tracker state [
	[(u'intent_push', 1.0), (u'entity_envName', 1.0), (u'entity_buildID', 1.0), (u'slot_buildID_0', 1.0), (u'slot_envName_0', 1.0), (u'prev_action_push_confirm', 1.0)]
	[(u'intent_latest', 1.0), (u'slot_buildID_0', 1.0), (u'slot_envName_0', 1.0), (u'prev_action_listen', 1.0)]]
DEBUG:rasa_core.featurizers:Feature 'entity_CARDINAL' (value: '1.0') could not be found in feature map. Make sure you added all intents and entities to the domain
DEBUG:rasa_core.policies.ensemble:Predicted next action 'action_push_confirm' with prob 1.00.
DEBUG:rasa_core.tracker_store:Recreating tracker for id 'ishwar1'
DEBUG:rasa_core.processor:Received user message 'give me latest build' with intent '{u'confidence': 0.99559556767241986, u'name': u'latest'}' and entities '[]'
DEBUG:rasa_core.processor:Logged UserUtterance - tracker now has 12 events
DEBUG:rasa_core.processor:Current slot values: 
	buildID: 4343
	matches: None
	envName: test
DEBUG:rasa_core.featurizers:Feature 'entity_CARDINAL' (value: '1.0') could not be found in feature map. Make sure you added all intents and entities to the domain
DEBUG:rasa_core.policies.memoization:Current tracker state [
	[(u'intent_push', 1.0), (u'entity_envName', 1.0), (u'entity_buildID', 1.0), (u'slot_buildID_0', 1.0), (u'slot_envName_0', 1.0), (u'prev_action_push_confirm', 1.0)]
	[(u'intent_latest', 1.0), (u'slot_buildID_0', 1.0), (u'slot_envName_0', 1.0), (u'prev_action_listen', 1.0)]]
DEBUG:rasa_core.featurizers:Feature 'entity_CARDINAL' (value: '1.0') could not be found in feature map. Make sure you added all intents and entities to the domain
DEBUG:rasa_core.policies.ensemble:Predicted next action 'action_push_confirm' with prob 1.00.
DEBUG:rasa_core.processor:Bot utterance 'BotUttered(text: Your build 4343 push to test is in progress., data: null)'
DEBUG:rasa_core.processor:Action 'action_push_confirm' ended with events '[]'
DEBUG:rasa_core.policies.memoization:Current tracker state [
	[(u'intent_latest', 1.0), (u'slot_buildID_0', 1.0), (u'slot_envName_0', 1.0), (u'prev_action_listen', 1.0)]
	[(u'intent_latest', 1.0), (u'slot_buildID_0', 1.0), (u'slot_envName_0', 1.0), (u'prev_action_push_confirm', 1.0)]]
DEBUG:rasa_core.policies.ensemble:Predicted next action 'action_listen' with prob 1.00.
DEBUG:rasa_core.processor:Action 'action_listen' ended with events '[]'
DEBUG:rasa_core.processor:Current topic: None
2018-04-02 17:10:20+0530 [-] "127.0.0.1" - - [02/Apr/2018:11:40:20 +0000] "POST /conversations/ishwar1/parse HTTP/1.1" 200 879 "-" "PostmanRuntime/7.1.1"
DEBUG:rasa_core.tracker_store:Recreating tracker for id 'ishwar1'
DEBUG:rasa_core.processor:Received user message 'show me my latest build' with intent '{u'confidence': 0.99725064750595704, u'name': u'latest'}' and entities '[]'
DEBUG:rasa_core.processor:Logged UserUtterance - tracker now has 16 events
DEBUG:rasa_core.processor:Current slot values: 
	buildID: 4343
	matches: None
	envName: test
DEBUG:rasa_core.policies.memoization:Current tracker state [
	[(u'intent_latest', 1.0), (u'slot_buildID_0', 1.0), (u'slot_envName_0', 1.0), (u'prev_action_push_confirm', 1.0)]
	[(u'intent_latest', 1.0), (u'slot_buildID_0', 1.0), (u'slot_envName_0', 1.0), (u'prev_action_listen', 1.0)]]
DEBUG:rasa_core.policies.ensemble:Predicted next action 'action_latest' with prob 0.98.
DEBUG:rasa_core.tracker_store:Recreating tracker for id 'ishwar1'
DEBUG:rasa_core.processor:Received user message 'show me my latest build' with intent '{u'confidence': 0.99725064750595704, u'name': u'latest'}' and entities '[]'
DEBUG:rasa_core.processor:Logged UserUtterance - tracker now has 17 events
DEBUG:rasa_core.processor:Current slot values: 
	buildID: 4343
	matches: None
	envName: test
DEBUG:rasa_core.policies.memoization:Current tracker state [
	[(u'intent_latest', 1.0), (u'slot_buildID_0', 1.0), (u'slot_envName_0', 1.0), (u'prev_action_push_confirm', 1.0)]
	[(u'intent_latest', 1.0), (u'slot_buildID_0', 1.0), (u'slot_envName_0', 1.0), (u'prev_action_listen', 1.0)]]
DEBUG:rasa_core.policies.ensemble:Predicted next action 'action_latest' with prob 0.98.
DEBUG:rasa_core.processor:Bot utterance 'BotUttered(text: Latest Build is 4343 on test, data: null)'
DEBUG:rasa_core.processor:Action 'action_latest' ended with events '[]'
DEBUG:rasa_core.policies.memoization:Current tracker state [
	[(u'intent_latest', 1.0), (u'slot_buildID_0', 1.0), (u'slot_envName_0', 1.0), (u'slot_matches_0', 1.0), (u'prev_action_listen', 1.0)]
	[(u'intent_latest', 1.0), (u'slot_buildID_0', 1.0), (u'slot_envName_0', 1.0), (u'slot_matches_0', 1.0), (u'prev_action_latest', 1.0)]]
DEBUG:rasa_core.policies.memoization:Used memorised next action '0'
DEBUG:rasa_core.policies.ensemble:Predicted next action 'action_listen' with prob 1.00.
DEBUG:rasa_core.processor:Action 'action_listen' ended with events '[]'
DEBUG:rasa_core.processor:Current topic: None
2018-04-02 17:10:49+0530 [-] "127.0.0.1" - - [02/Apr/2018:11:40:48 +0000] "POST /conversations/ishwar1/parse HTTP/1.1" 200 860 "-" "PostmanRuntime/7.1.1"
DEBUG:rasa_core.tracker_store:Recreating tracker for id 'ishwar1'
DEBUG:rasa_core.processor:Received user message 'lock my build' with intent '{u'confidence': 0.99847793482859692, u'name': u'lock'}' and entities '[]'
DEBUG:rasa_core.processor:Logged UserUtterance - tracker now has 24 events
DEBUG:rasa_core.processor:Current slot values: 
	buildID: 4343
	matches: True
	envName: test
DEBUG:rasa_core.policies.memoization:Current tracker state [
	[(u'intent_latest', 1.0), (u'slot_buildID_0', 1.0), (u'slot_envName_0', 1.0), (u'slot_matches_0', 1.0), (u'prev_action_latest', 1.0)]
	[(u'intent_lock', 1.0), (u'slot_buildID_0', 1.0), (u'slot_envName_0', 1.0), (u'slot_matches_0', 1.0), (u'prev_action_listen', 1.0)]]
DEBUG:rasa_core.policies.memoization:Used memorised next action '7'
DEBUG:rasa_core.policies.ensemble:Predicted next action 'action_lock' with prob 1.00.
DEBUG:rasa_core.tracker_store:Recreating tracker for id 'ishwar1'
DEBUG:rasa_core.processor:Received user message 'lock my build' with intent '{u'confidence': 0.99847793482859692, u'name': u'lock'}' and entities '[]'
DEBUG:rasa_core.processor:Logged UserUtterance - tracker now has 25 events
DEBUG:rasa_core.processor:Current slot values: 
	buildID: 4343
	matches: True
	envName: test
DEBUG:rasa_core.policies.memoization:Current tracker state [
	[(u'intent_latest', 1.0), (u'slot_buildID_0', 1.0), (u'slot_envName_0', 1.0), (u'slot_matches_0', 1.0), (u'prev_action_latest', 1.0)]
	[(u'intent_lock', 1.0), (u'slot_buildID_0', 1.0), (u'slot_envName_0', 1.0), (u'slot_matches_0', 1.0), (u'prev_action_listen', 1.0)]]
DEBUG:rasa_core.policies.memoization:Used memorised next action '7'
DEBUG:rasa_core.policies.ensemble:Predicted next action 'action_lock' with prob 1.00.
DEBUG:rasa_core.processor:Bot utterance 'BotUttered(text: Your build 4343 is locked on test for now., data: null)'
DEBUG:rasa_core.processor:Action 'action_lock' ended with events '[]'
DEBUG:rasa_core.policies.memoization:Current tracker state [
	[(u'intent_lock', 1.0), (u'slot_buildID_0', 1.0), (u'slot_envName_0', 1.0), (u'slot_matches_0', 1.0), (u'prev_action_listen', 1.0)]
	[(u'intent_lock', 1.0), (u'slot_buildID_0', 1.0), (u'slot_envName_0', 1.0), (u'slot_matches_0', 1.0), (u'prev_action_lock', 1.0)]]
DEBUG:rasa_core.policies.memoization:Used memorised next action '0'
DEBUG:rasa_core.policies.ensemble:Predicted next action 'action_listen' with prob 1.00.
DEBUG:rasa_core.processor:Action 'action_listen' ended with events '[]'
DEBUG:rasa_core.processor:Current topic: None
2018-04-02 17:11:08+0530 [-] "127.0.0.1" - - [02/Apr/2018:11:41:08 +0000] "POST /conversations/ishwar1/parse HTTP/1.1" 200 858 "-" "PostmanRuntime/7.1.1"
DEBUG:rasa_core.tracker_store:Recreating tracker for id 'ishwar1'
DEBUG:rasa_core.processor:Received user message 'certify my build' with intent '{u'confidence': 0.88859094565604191, u'name': u'revert'}' and entities '[]'
DEBUG:rasa_core.processor:Logged UserUtterance - tracker now has 32 events
DEBUG:rasa_core.processor:Current slot values: 
	buildID: 4343
	matches: True
	envName: test
DEBUG:rasa_core.policies.memoization:Current tracker state [
	[(u'intent_lock', 1.0), (u'slot_buildID_0', 1.0), (u'slot_envName_0', 1.0), (u'slot_matches_0', 1.0), (u'prev_action_lock', 1.0)]
	[(u'intent_revert', 1.0), (u'slot_buildID_0', 1.0), (u'slot_envName_0', 1.0), (u'slot_matches_0', 1.0), (u'prev_action_listen', 1.0)]]
DEBUG:rasa_core.policies.ensemble:Predicted next action 'action_revert' with prob 1.00.
DEBUG:rasa_core.tracker_store:Recreating tracker for id 'ishwar1'
DEBUG:rasa_core.processor:Received user message 'certify my build' with intent '{u'confidence': 0.88859094565604191, u'name': u'revert'}' and entities '[]'
DEBUG:rasa_core.processor:Logged UserUtterance - tracker now has 33 events
DEBUG:rasa_core.processor:Current slot values: 
	buildID: 4343
	matches: True
	envName: test
DEBUG:rasa_core.policies.memoization:Current tracker state [
	[(u'intent_lock', 1.0), (u'slot_buildID_0', 1.0), (u'slot_envName_0', 1.0), (u'slot_matches_0', 1.0), (u'prev_action_lock', 1.0)]
	[(u'intent_revert', 1.0), (u'slot_buildID_0', 1.0), (u'slot_envName_0', 1.0), (u'slot_matches_0', 1.0), (u'prev_action_listen', 1.0)]]
DEBUG:rasa_core.policies.ensemble:Predicted next action 'action_revert' with prob 1.00.
DEBUG:rasa_core.processor:Bot utterance 'BotUttered(text: Build 4343 is reverted from test, data: null)'
DEBUG:rasa_core.processor:Action 'action_revert' ended with events '[u'AllSlotsReset()']'
DEBUG:rasa_core.policies.memoization:Current tracker state [
	[(u'intent_revert', 1.0), (u'slot_buildID_0', 1.0), (u'slot_envName_0', 1.0), (u'slot_matches_0', 1.0), (u'prev_action_listen', 1.0)]
	[(u'intent_revert', 1.0), (u'prev_action_revert', 1.0)]]
DEBUG:rasa_core.policies.memoization:Used memorised next action '0'
DEBUG:rasa_core.policies.ensemble:Predicted next action 'action_listen' with prob 1.00.
DEBUG:rasa_core.processor:Action 'action_listen' ended with events '[]'
DEBUG:rasa_core.processor:Current topic: None
2018-04-02 17:11:31+0530 [-] "127.0.0.1" - - [02/Apr/2018:11:41:31 +0000] "POST /conversations/ishwar1/parse HTTP/1.1" 200 849 "-" "PostmanRuntime/7.1.1"
